<svg xmlns="http://www.w3.org/2000/svg" xmlns:xlink="http://www.w3.org/1999/xlink" preserveAspectRatio="xMidYMid" width="22" height="24" viewBox="0 0 22 24">
  <defs>
    <style>
      .cls-1 {
        fill: #1b1b1b;
        fill-rule: evenodd;
      }
    </style>
  </defs>
  <path d="M21.975,13.317 C21.709,19.251 16.896,24.000 11.000,24.000 C5.104,24.000 0.291,19.251 0.025,13.317 C0.020,13.273 0.000,13.235 0.000,13.190 L0.000,1.000 C0.000,0.447 0.447,0.000 1.000,0.000 L6.000,0.000 C6.553,0.000 7.000,0.447 7.000,1.000 L7.000,12.833 C7.000,15.082 8.794,16.912 11.000,16.912 C13.206,16.912 15.000,15.082 15.000,12.833 L15.000,1.000 C15.000,0.447 15.447,0.000 16.000,0.000 L21.000,0.000 C21.553,0.000 22.000,0.447 22.000,1.000 L22.000,13.190 C22.000,13.235 21.980,13.273 21.975,13.317 ZM2.000,2.000 L2.000,4.064 L5.000,4.064 L5.000,2.000 L2.000,2.000 ZM20.000,2.000 L17.000,2.000 L17.000,4.064 L20.000,4.064 L20.000,2.000 ZM20.000,6.063 L17.000,6.063 L17.000,13.190 C17.000,13.315 16.971,13.431 16.929,13.541 C16.578,16.556 14.069,18.912 11.000,18.912 C7.931,18.912 5.422,16.556 5.071,13.541 C5.029,13.431 5.000,13.315 5.000,13.190 L5.000,6.063 L2.000,6.063 L2.000,12.806 C2.000,17.875 6.037,22.000 11.000,22.000 C15.963,22.000 20.000,17.875 20.000,12.806 L20.000,6.063 Z" class="cls-1"/>
</svg>
