<svg xmlns="http://www.w3.org/2000/svg" xmlns:xlink="http://www.w3.org/1999/xlink" preserveAspectRatio="xMidYMid" width="16.875" height="24" viewBox="0 0 16.875 24">
  <defs>
    <style>
      .cls-1 {
        fill: #1b1b1b;
        fill-rule: evenodd;
      }
    </style>
  </defs>
  <path d="M9.926,24.000 C5.505,24.000 3.000,21.778 3.000,18.000 L3.000,12.000 L0.981,12.000 C0.431,12.000 -0.013,11.552 -0.013,11.000 L-0.013,6.000 C-0.013,5.710 0.112,5.434 0.330,5.244 C0.550,5.054 0.838,4.966 1.124,5.011 C1.135,5.012 1.200,5.018 1.296,5.018 C2.292,5.018 3.962,4.496 3.962,1.000 C3.962,0.448 4.407,0.000 4.956,0.000 L9.917,0.000 C10.466,0.000 10.911,0.448 10.911,1.000 L10.911,5.000 L14.886,5.000 C15.436,5.000 15.880,5.448 15.880,6.000 L15.880,11.000 C15.880,11.552 15.436,12.000 14.886,12.000 L10.911,12.000 L10.911,15.941 C10.911,16.859 11.131,16.859 11.326,16.859 C11.510,16.859 11.843,16.814 12.393,16.600 C12.890,16.405 13.434,16.118 13.439,16.115 C13.677,15.990 13.952,15.965 14.207,16.048 C14.461,16.131 14.672,16.312 14.791,16.553 L16.779,20.553 C16.999,20.994 16.866,21.530 16.466,21.815 C16.341,21.904 13.368,24.000 9.926,24.000 ZM1.975,10.000 L3.962,10.000 C4.512,10.000 4.956,10.448 4.956,11.000 L4.956,18.055 C4.956,19.030 4.956,22.000 9.926,22.000 C11.843,22.000 13.637,21.166 14.594,20.628 L13.449,18.324 C13.339,18.372 13.226,18.419 13.113,18.463 C12.433,18.730 11.847,18.859 11.326,18.859 C10.762,18.859 9.000,18.707 9.000,16.000 L9.000,11.000 C9.000,10.448 9.367,10.000 9.917,10.000 L14.000,10.000 L14.000,7.000 L9.917,7.000 C9.367,7.000 8.923,6.552 8.923,6.000 L8.923,2.000 L5.907,2.000 C5.608,5.277 3.826,6.698 1.975,6.969 L1.975,10.000 Z" class="cls-1"/>
</svg>
