<?xml version="1.0" encoding="iso-8859-1"?>
<!-- Generator: Adobe Illustrator 17.1.0, SVG Export Plug-In . SVG Version: 6.00 Build 0)  -->
<!DOCTYPE svg PUBLIC "-//W3C//DTD SVG 1.1//EN" "http://www.w3.org/Graphics/SVG/1.1/DTD/svg11.dtd">
<svg version="1.1" id="Capa_1" xmlns="http://www.w3.org/2000/svg" xmlns:xlink="http://www.w3.org/1999/xlink" x="0px" y="0px"
	 viewBox="0 0 511.007 511.007" style="enable-background:new 0 0 511.007 511.007;" xml:space="preserve">
<g>
	<path d="M119.5,388.007c-8.547,0-15.5,6.953-15.5,15.5s6.953,15.5,15.5,15.5s15.5-6.953,15.5-15.5S128.047,388.007,119.5,388.007z
		 M119.5,404.007c-0.276,0-0.5-0.224-0.5-0.5s0.224-0.5,0.5-0.5s0.5,0.224,0.5,0.5S119.776,404.007,119.5,404.007z"/>
	<path d="M327.5,388.007c-8.547,0-15.5,6.953-15.5,15.5s6.953,15.5,15.5,15.5s15.5-6.953,15.5-15.5S336.047,388.007,327.5,388.007z
		 M327.5,404.007c-0.276,0-0.5-0.224-0.5-0.5s0.224-0.5,0.5-0.5s0.5,0.224,0.5,0.5S327.776,404.007,327.5,404.007z"/>
	<path d="M79.5,283.008c1.97,0,3.91-0.8,5.3-2.2c1.4-1.4,2.2-3.33,2.2-5.3c0-1.97-0.8-3.91-2.2-5.3c-1.39-1.4-3.33-2.2-5.3-2.2
		c-1.97,0-3.91,0.8-5.3,2.2c-1.4,1.39-2.2,3.32-2.2,5.3c0,1.97,0.8,3.91,2.2,5.3C75.59,282.207,77.52,283.008,79.5,283.008z"/>
	<path d="M507.648,111.417l-24.001-40.001c-3.229-5.38-8.363-9.181-14.454-10.704c-6.092-1.522-12.409-0.583-17.785,2.645
		c-5.383,3.229-9.186,8.362-10.708,14.451c-0.744,2.977-0.896,6.008-0.484,8.957l-336.581,168.53
		c-5.783-6.895-14.455-11.288-24.136-11.288c-6.046,0-11.698,1.716-16.5,4.681v-5.181c0-4.142-3.358-7.5-7.5-7.5h-32
		c-4.142,0-7.5,3.358-7.5,7.5v88.5h-0.5c-8.547,0-15.5,6.953-15.5,15.5v56c0,8.547,6.953,15.5,15.5,15.5h59.111
		c6.442,18.601,24.125,32,44.889,32c20.982,0,38.819-13.681,45.088-32.587c0.896,0.378,1.88,0.587,2.913,0.587h111.996h0.005
		c1.032,0,2.015-0.209,2.91-0.586c6.27,18.905,24.106,32.586,45.088,32.586c20.765,0,38.448-13.399,44.889-32H399.5
		c8.547,0,15.5-6.953,15.5-15.5v-16.5h2.608c11.627,0,21.717-7.878,24.537-19.158c0.01-0.041,0.02-0.081,0.029-0.122l51.473-221.54
		c2.077-0.564,4.078-1.411,5.94-2.53c5.383-3.229,9.186-8.362,10.708-14.451C511.819,123.115,510.878,116.798,507.648,111.417z
		 M128,332.007H63v-29.681c4.802,2.965,10.454,4.681,16.5,4.681H128V332.007z M79.5,259.007c9.098,0,16.5,7.402,16.5,16.5
		s-7.402,16.5-16.5,16.5s-16.5-7.402-16.5-16.5S70.402,259.007,79.5,259.007z M31,251.007h17v81H31V251.007z M119.5,436.007
		c-17.92,0-32.5-14.58-32.5-32.5s14.58-32.5,32.5-32.5s32.5,14.58,32.5,32.5S137.42,436.007,119.5,436.007z M327.5,436.007
		c-17.92,0-32.5-14.58-32.5-32.5s14.58-32.5,32.5-32.5s32.5,14.58,32.5,32.5S345.42,436.007,327.5,436.007z M400,403.507
		c0,0.276-0.224,0.5-0.5,0.5h-24.513c0.002-0.167,0.013-0.332,0.013-0.5c0-26.191-21.309-47.5-47.5-47.5s-47.5,21.309-47.5,47.5
		c0,0.176,0.011,0.35,0.013,0.526c-0.17-0.011-0.339-0.026-0.511-0.026h-0.005H167.501c-0.174,0-0.344,0.014-0.514,0.026
		c0.002-0.176,0.013-0.35,0.013-0.526c0-26.191-21.309-47.5-47.5-47.5S72,377.315,72,403.507c0,0.168,0.011,0.333,0.013,0.5H15.5
		c-0.276,0-0.5-0.224-0.5-0.5v-56c0-0.276,0.224-0.5,0.5-0.5h132.894l35.46,35.46c2.928,2.928,6.82,4.54,10.96,4.54h57.373
		c4.14,0,8.032-1.612,10.96-4.54l13.656-13.655c0.001-0.001,0.002-0.002,0.002-0.003l21.802-21.802H399.5c0.276,0,0.5,0.224,0.5,0.5
		V403.507z M239.501,340.007H175v-72.5c0-0.276,0.224-0.5,0.5-0.5H192v16.5c0,17.369,14.131,31.5,31.5,31.5H264V360.4l-11.46,11.46
		c-0.095,0.094-0.22,0.146-0.354,0.146h-57.373c-0.133,0-0.259-0.052-0.354-0.146l-16.854-16.854h61.895c4.142,0,7.5-3.358,7.5-7.5
		S243.643,340.007,239.501,340.007z M243.968,267.007c3.665,0,6.905,2.336,8.064,5.812l9.063,27.188H223.5
		c-9.098,0-16.5-7.402-16.5-16.5v-16.5H243.968z M427.58,364.263c-1.166,4.563-5.258,7.744-9.972,7.744H415v-24.5
		c0-8.547-6.953-15.5-15.5-15.5h-104c-1.989,0-3.897,0.79-5.303,2.197L279,345.4v-32.701c0-1.208-0.061-2.411-0.171-3.609
		c0.11-0.511,0.171-1.04,0.171-1.584c0-1.39-0.385-2.687-1.044-3.804c-0.275-1.176-0.599-2.343-0.983-3.495l-10.711-32.133
		c-3.205-9.611-12.164-16.068-22.294-16.068H175.5c-8.547,0-15.5,6.953-15.5,15.5V337.4l-3.197-3.197
		c-1.406-1.407-3.314-2.197-5.303-2.197H143v-48.5c0-4.142-3.358-7.5-7.5-7.5s-7.5,3.358-7.5,7.5v8.5h-21.681
		c2.965-4.802,4.681-10.454,4.681-16.5c0-2.319-0.259-4.577-0.737-6.754L446.291,100.5l21.058,35.096
		c2.61,4.35,6.559,7.678,11.132,9.589L427.58,364.263z M495.744,125.567c-0.551,2.203-1.927,4.059-3.878,5.23
		c-1.322,0.794-2.827,1.214-4.352,1.214c-3.021,0-5.751-1.545-7.303-4.132L456.21,87.877c-1.167-1.945-1.507-4.229-0.957-6.43
		c0.551-2.203,1.927-4.059,3.876-5.229c1.333-0.801,2.828-1.211,4.348-1.211c0.692,0,1.39,0.085,2.08,0.257
		c2.205,0.551,4.063,1.927,5.23,3.871l24.001,40.001C495.955,121.081,496.294,123.365,495.744,125.567z"/>
</g>
<g>
</g>
<g>
</g>
<g>
</g>
<g>
</g>
<g>
</g>
<g>
</g>
<g>
</g>
<g>
</g>
<g>
</g>
<g>
</g>
<g>
</g>
<g>
</g>
<g>
</g>
<g>
</g>
<g>
</g>
</svg>
